{
  "status": true,
  "message": "Contact list retrieved successfully",
  "data": {
    "list": [
      {
        "id": "abc123xyz",
        "name": "John Doe",
        "email": "john.doe@example.com",
        "phone": "+1234567890",
        "gender": "Male",
        "profile_image": "https://example.com/storage/profiles/john-doe.jpg",
        "additional_file": "https://example.com/storage/documents/john-resume.pdf",
        "is_merged": false,
        "is_merge_locked": false,
        "can_merge": true,
        "merged_into_id": null,
        "secondary_contact_id": null,
        "merged_at": null,
        "emails": [
          {
            "id": "email123",
            "email": "john.work@example.com",
            "email_type": "work",
            "is_primary": false,
            "source_contact_id": null,
            "creator_name": "Admin User",
            "updater_name": "Admin User",
            "created_at": "2025-01-15 10:30:00",
            "updated_at": "2025-01-15 10:30:00"
          }
        ],
        "phones": [
          {
            "id": "phone123",
            "phone": "+1234567891",
            "phone_type": "mobile",
            "is_primary": false,
            "source_contact_id": null,
            "creator_name": "Admin User",
            "updater_name": "Admin User",
            "created_at": "2025-01-15 10:30:00",
            "updated_at": "2025-01-15 10:30:00"
          }
        ],
        "custom_field_values": [
          {
            "id": "cfv123",
            "field_value": "1990-05-15",
            "custom_field_id": "cf1",
            "source_contact_id": null,
            "custom_field": {
              "id": "cf1",
              "field_name": "date_of_birth",
              "field_label": "Date of Birth",
              "field_type": "date",
              "field_options": null,
              "is_required": false
            },
            "creator_name": "Admin User",
            "updater_name": "Admin User",
            "created_at": "2025-01-15 10:30:00",
            "updated_at": "2025-01-15 10:30:00"
          },
          {
            "id": "cfv124",
            "field_value": "Tech Corp",
            "custom_field_id": "cf2",
            "source_contact_id": null,
            "custom_field": {
              "id": "cf2",
              "field_name": "company",
              "field_label": "Company",
              "field_type": "text",
              "field_options": null,
              "is_required": false
            },
            "creator_name": "Admin User",
            "updater_name": "Admin User",
            "created_at": "2025-01-15 10:30:00",
            "updated_at": "2025-01-15 10:30:00"
          }
        ],
        "creator_name": "Admin User",
        "updater_name": "Admin User",
        "created_at": "2025-01-15 10:30:00",
        "updated_at": "2025-01-15 10:30:00",
        "deleted_at": null
      },
      {
        "id": "def456uvw",
        "name": "Jane Smith",
        "email": "jane.smith@example.com",
        "phone": "+1987654320",
        "gender": "Female",
        "profile_image": "https://example.com/storage/profiles/jane-smith.jpg",
        "additional_file": null,
        "is_merged": false,
        "is_merge_locked": false,
        "can_merge": true,
        "merged_into_id": null,
        "secondary_contact_id": null,
        "merged_at": null,
        "emails": [],
        "phones": [],
        "custom_field_values": [],
        "creator_name": "Admin User",
        "updater_name": "Admin User",
        "created_at": "2025-01-14 09:15:00",
        "updated_at": "2025-01-14 09:15:00",
        "deleted_at": null
      }
    ],
    "pagination": {
      "current_page": 1,
      "next_page": 2,
      "from": 1,
      "last_page": 5,
      "per_page": 15,
      "to": 15,
      "total": 68
    }
  }
}
